
{
  "task_base_s3_folder":"s3://atl-prd-annotation-cloudfactory/source_media/tasks/vh_class_task_20191112/",
  "media_file_dict": {
    "14a78b1d2cdd_video0_1573058249_atlftpd_20191106163729-capture.jpg": {
      "orig_s3_url":"s3://atl-prd-trimac-rawdata/image_readings/db8cam06_trimac_prd/video0/atlftpd/2019/11/06/16/14a78b1d2cdd_video0_1573058249_atlftpd_20191106163729-capture.jpg"
    },
    "38af29016a3b_video0_1573017258_atlftpd_20191106051418-snapshot.jpg": {
      "orig_s3_url":"s3://atl-prd-trimac-rawdata/image_readings/db8cam04_trimac_prd/video0/atlftpd/2019/11/06/05/38af29016a3b_video0_1573017258_atlftpd_20191106051418-snapshot.jpg"
    }
  }
}