{
    "s3_url": "s3://atl-prd-foocustomer-rawdata/image_readings/atloverhead03_foocustomer_prd/video0/default/2019/04/13/07/0000210e5f25_video0_1555139034_default_thumbnail.jpg",

    "mime_type": "image/jpeg",
    "height": 1080,
    "width": 1920,
    "color_space": "RGB",
    "channels": 3,

    "result_gen_time": {
        "iso8601_datetime": "2018-11-01T01:23:45Z"
    },
    "result_source_type": "human_result",
    "human_user_id": "mailto:johh.smith@atollogy.com",

    "classification_result_entries": [
        {
            "crop_bbox": {
                "xmin": 100,
                "xmax": 600,
                "ymin": 100,
                "ymax": 1000
            },
            "detected_image_class": {
                "text": "trailer"
            }
        }
    ],
    "vehicle_id_annotation_list": [
        {
            "lpn_info": {
                "bbox": {
                    "xmin": 300,
                    "ymin": 800,
                    "xmax": 320,
                    "ymax": 815
                },
                "id_str": "A12345"
            }
        }
    ]
}