{
  "qc_object_list": [
    {
       "object_qc_type": "not_sure",
       "target_class_text": "person",
       "target_obj_idx": 0
    },
    {
       "object_qc_type": "chg_bbox_class",
       "target_class_text": "person",
       "target_obj_idx": 1,
       "new_class": "garbage",
       "new_bbox": {
         "xmin": 11,
         "xmax": 111,
         "ymin": 22,
         "ymax": 222
       }
    },
    {
       "object_qc_type": "false_negative",
       "new_bbox": {
         "xmin": 11,
         "xmax": 111,
         "ymin": 22,
         "ymax": 222
       }
    }
  ]
}